%YAML 1.1
%TAG !u! tag:unity3d.com,2011:
--- !u!114 &11400000
MonoBehaviour:
  m_ObjectHideFlags: 0
  m_CorrespondingSourceObject: {fileID: 0}
  m_PrefabInstance: {fileID: 0}
  m_PrefabAsset: {fileID: 0}
  m_GameObject: {fileID: 0}
  m_Enabled: 1
  m_EditorHideFlags: 0
  m_Script: {fileID: 11500000, guid: a179f0091bcfcc241b8b78ebfd96ed06, type: 3}
  m_Name: Pistol
  m_EditorClassIdentifier: 
  nameString: Pistol
  weaponPrefab: {fileID: 4120122712277603514, guid: 80b7a19ad0c9fc14498e857721731be3, type: 3}
  projectilePrefab: {fileID: 6359263475358203540, guid: f2e9f87e013e7fc4f928be4794b53490, type: 3}
  shootTimerMax: 0.3
  damage: 20
  projectileSpeed: 50
  projectileTimerMax: 0.4
