%YAML 1.1
%TAG !u! tag:unity3d.com,2011:
--- !u!114 &11400000
MonoBehaviour:
  m_ObjectHideFlags: 0
  m_CorrespondingSourceObject: {fileID: 0}
  m_PrefabInstance: {fileID: 0}
  m_PrefabAsset: {fileID: 0}
  m_GameObject: {fileID: 0}
  m_Enabled: 1
  m_EditorHideFlags: 0
  m_Script: {fileID: 11500000, guid: a179f0091bcfcc241b8b78ebfd96ed06, type: 3}
  m_Name: PulseRifle
  m_EditorClassIdentifier: 
  nameString: Pulse Rifle
  weaponPrefab: {fileID: 4437399049995006096, guid: 84a44d3ae6202e94992838602e135985, type: 3}
  projectilePrefab: {fileID: 6599077478526045508, guid: 8499b25ba0379e240930e910bc71c307, type: 3}
  shootTimerMax: 1
  damage: 10
  projectileSpeed: 60
  projectileTimerMax: 0.5
