%YAML 1.1
%TAG !u! tag:unity3d.com,2011:
--- !u!114 &11400000
MonoBehaviour:
  m_ObjectHideFlags: 0
  m_CorrespondingSourceObject: {fileID: 0}
  m_PrefabInstance: {fileID: 0}
  m_PrefabAsset: {fileID: 0}
  m_GameObject: {fileID: 0}
  m_Enabled: 1
  m_EditorHideFlags: 0
  m_Script: {fileID: 11500000, guid: b5aa7846745ab1e4dac3c60ec52e8cfd, type: 3}
  m_Name: Energy
  m_EditorClassIdentifier: 
  nameString: Energy
  sprite: {fileID: 21300000, guid: 8b744c47cb320b84889a7b8439a78bc2, type: 3}
  nameShort: E
  colorHex: A1A118
