%YAML 1.1
%TAG !u! tag:unity3d.com,2011:
--- !u!114 &11400000
MonoBehaviour:
  m_ObjectHideFlags: 0
  m_CorrespondingSourceObject: {fileID: 0}
  m_PrefabInstance: {fileID: 0}
  m_PrefabAsset: {fileID: 0}
  m_GameObject: {fileID: 0}
  m_Enabled: 1
  m_EditorHideFlags: 0
  m_Script: {fileID: 11500000, guid: 3351871b621eed4479b503f93d99594a, type: 3}
  m_Name: BuildingTypeListSO
  m_EditorClassIdentifier: 
  list:
  - {fileID: 11400000, guid: 9a34a16d6452e4e4685d5ef7d0e32938, type: 2}
  - {fileID: 11400000, guid: 8af49ae952246f8458ba8a33e7fb2817, type: 2}
  - {fileID: 11400000, guid: b7fb445e8ff7e9b439598c85d9f241df, type: 2}
  - {fileID: 11400000, guid: b991a5bea14167a42ac10f85a102dc55, type: 2}
  - {fileID: 11400000, guid: 6071ce2bf5110f747a601fc3399af5fa, type: 2}
  - {fileID: 11400000, guid: f4c9394f8498e174792eb0ac743d4284, type: 2}
